autoconf 2.69-4
automake 1.15-2
bash 4.4.012-2
binutils 2.28.0-2
bison 3.0.4-2
bluez 5.45-1
bluez-utils 5.45-1
bzip2 1.0.6-6
chromium 58.0.3029.110-1
coreutils 8.27-1
crda 3.18-1
cryptsetup 1.7.5-1
device-mapper 2.02.171-1
dhcpcd 6.11.5-1
dialog 1:1.3_20170509-1
diffutils 3.5-1
ds4drv 0.5.1-2
e2fsprogs 1.43.4-1
exo 0.10.7-2
fakeroot 1.21-2
file 5.30-1
filesystem 2017.03-2
findutils 4.6.0-2
fish 2.5.0-1
flex 2.6.4-1
garcon 0.6.0-1
gawk 4.1.4-2
gcc 6.3.1-2
gcc-libs 6.3.1-2
gettext 0.19.8.1-2
git 2.13.0-1
glibc 2.25-1
grep 3.0-1
gtk-xfce-engine 2.10.1-1
gzip 1.8-2
haveged 1.9.1-2
htop 2.0.2-1
inetutils 1.9.4-5
iproute2 4.11.0-1
iputils 20161105.1f2bb12-2
jfsutils 1.1.15-4
jstest-gtk-git 0.1.0.r72.gc10e47c-1
less 487-1
libretro-beetle-psx 1436-1
libretro-beetle-psx-hw 1436-1
libretro-bsnes 499-1
libretro-gambatte 635-1
libretro-mgba 4278-1
libretro-nestopia 721-1
libretro-overlays 106-1
libretro-pcsx-rearmed 1179-1
libretro-scummvm 78548-1
libretro-snes9x 596-1
libretro-yabause 2876-1
libtool 2.4.6-7
licenses 20140629-2
linux-raspberrypi 4.9.29-1
linux-raspberrypi-headers 4.9.29-1
logrotate 3.12.2-1
lvm2 2.02.171-1
m4 1.4.18-1
make 4.2.1-2
man-db 2.7.6.1-2
man-pages 4.11-1
mdadm 4.0-1
mesa-demos 8.3.0-2
mousepad 0.4.0-2
nano 2.8.2-1
net-tools 1.60.20160710git-1
netctl 1.12-2
openssh 7.5p1-2
orage 4.12.1-3
pacaur 4.7.8-1
package-query 1.8-2
pacman 5.0.1-5
pacman-mirrorlist 20170512-1
patch 2.7.5-1
pciutils 3.5.4-1
perl 5.24.1-1
pi-bluetooth 1-1
pkg-config 0.29.2-1
procps-ng 3.3.12-1
psmisc 22.21-3
python-evdev 0.6.4-2
raspberrypi-bootloader 20170515-1
raspberrypi-bootloader-x 20170515-1
raspberrypi-firmware 20170515-1
reiserfsprogs 3.6.25-1
retroarch 1.5.0-3
retroarch-assets-xmb 433-1
retroarch-autoconfig-udev 1174-1
ristretto 0.8.2-1
s-nail 14.8.16-2
sed 4.4-1
shadow 4.4-3
steamos-xpad-dkms 20161217-1
sudo 1.8.20-1
sysfsutils 2.1.0-9
systemd-sysvcompat 232-8
tar 1.29-2
texinfo 6.3-1
thunar 1.6.11-2
thunar-archive-plugin 0.3.1-6
thunar-media-tags-plugin 0.2.1-2
thunar-volman 0.8.1-2
tumbler 0.1.31-2
usbutils 008-1
util-linux 2.29.2-2
vi 1:070224-2
which 2.21-2
wireless_tools 30.pre9-1
wpa_actiond 1.4-2
wpa_supplicant 1:2.6-5
xf86-video-vesa 2.3.4-3
xfburn 0.5.4-3
xfce4-appfinder 4.12.0-4
xfce4-artwork 0.1.1a_git20110420-4
xfce4-battery-plugin 1.1.0-1
xfce4-clipman-plugin 1.4.1-1
xfce4-cpufreq-plugin 1.1.3-1
xfce4-cpugraph-plugin 1.0.5-4
xfce4-datetime-plugin 0.7.0-1
xfce4-dict 0.8.0-1
xfce4-diskperf-plugin 2.6.1-1
xfce4-eyes-plugin 4.4.5-1
xfce4-fsguard-plugin 1.1.0-1
xfce4-genmon-plugin 4.0.0-1
xfce4-mailwatch-plugin 1.2.0-7
xfce4-mount-plugin 1.1.2-1
xfce4-mpc-plugin 0.5.0-1
xfce4-netload-plugin 1.3.1-1
xfce4-notes-plugin 1.8.1-2
xfce4-notifyd 0.3.6-1
xfce4-panel 4.12.1-1
xfce4-power-manager 1.6.0.41.g9daecb5-1
xfce4-pulseaudio-plugin 0.2.5-1
xfce4-screenshooter 1.8.2-3
xfce4-sensors-plugin 1.2.6-3
xfce4-session 4.12.1-6
xfce4-settings 4.12.1-1
xfce4-smartbookmark-plugin 0.5.0-1
xfce4-systemload-plugin 1.2.1-1
xfce4-taskmanager 1.2.0-1
xfce4-terminal 0.8.5.1-1
xfce4-time-out-plugin 1.0.2-2
xfce4-timer-plugin 1.6.0-4
xfce4-verve-plugin 1.1.0-1
xfce4-wavelan-plugin 0.6.0-1
xfce4-weather-plugin 0.8.9-1
xfce4-whiskermenu-plugin 1.7.2-2
xfce4-xkb-plugin 0.7.1-2
xfconf 4.12.1-1
xfdesktop 4.12.3-3
xfsprogs 4.11.0-1
xfwm4 4.12.4-1
xfwm4-themes 4.10.0-2
xorg-apps 7.6-1
xorg-bdftopcf 1.0.5-1
xorg-docs 1.7.1-1
xorg-font-util 1.3.1-1
xorg-fonts-100dpi 1.0.3-3
xorg-fonts-75dpi 1.0.3-3
xorg-luit 1.1.1-2
xorg-server 1.19.3-2
xorg-server-common 1.19.3-2
xorg-server-devel 1.19.3-2
xorg-server-xdmx 1.19.3-2
xorg-server-xephyr 1.19.3-2
xorg-server-xnest 1.19.3-2
xorg-server-xvfb 1.19.3-2
xorg-server-xwayland 1.19.3-2
xorg-sessreg 1.1.1-1
xorg-setxkbmap 1.3.1-1
xorg-smproxy 1.0.6-1
xorg-x11perf 1.6.0-1
xorg-xbacklight 1.2.1-1
xorg-xcmsdb 1.0.5-1
xorg-xcursorgen 1.0.6-1
xorg-xdpyinfo 1.3.2-1
xorg-xdriinfo 1.0.5-1
xorg-xev 1.2.2-1
xorg-xgamma 1.0.6-1
xorg-xhost 1.0.7-1
xorg-xinput 1.6.2-1
xorg-xkbcomp 1.4.0-1
xorg-xkbevd 1.1.4-1
xorg-xkbutils 1.0.4-2
xorg-xkill 1.0.4-1
xorg-xlsatoms 1.1.2-1
xorg-xlsclients 1.1.3-1
xorg-xpr 1.0.4-2
xorg-xprop 1.2.2-1
xorg-xrandr 1.5.0-1
xorg-xrefresh 1.0.5-1
xorg-xset 1.2.3-1
xorg-xsetroot 1.1.1-2
xorg-xvinfo 1.1.3-1
xorg-xwd 1.0.6-1
xorg-xwininfo 1.1.3-1
xorg-xwud 1.0.4-2
